developer_designs/cl_hello_world/verif/sim/vivado/test_hello_world/myfile.vcd
$date
   Wed May  1 09:12:20 2019
$end
$version
  2018.2
$end
$timescale
  1ps
$end
$scope module test_hello_world_1 $end
$var reg 32 ! rdata [31:0] $end
$var parameter 32 " data_size [31:0] $end
$var parameter 32 # systolic_size [31:0] $end
$var parameter 32 $ memory_data_size [31:0] $end
$var parameter 32 % ADDR_W [31:0] $end
$var parameter 32 & baseaddr_A [31:0] $end
$var parameter 32 ' baseaddr_B [31:0] $end
$var parameter 32 ( baseaddr_C [31:0] $end
$var parameter 32 ) matrix_size [31:0] $end
$var parameter 6 * AXI_ID [5:0] $end
$upscope $end
$enddefinitions $end
#0
$dumpvars
bx !
b100000 "
b100 #
b10000000 $
b10 %
b0 &
b0 '
b1000000 (
b100 )
b0 *
$end
#5170000
b100 !
#5410000
b0 !
#9610000
b1 !
#9670000
b10 !
#9730000
b11 !
#9790000
b0 !
#9850000
b1 !
#9910000
b10 !
#9970000
b11 !
#10030000
b0 !
#10090000
b1 !
#10150000
b10 !
#10210000
b11 !
#10270000
b0 !
#10330000
b1 !
#10390000
b10 !
#10450000
b11 !
#10510000
b0 !
#10570000
b1 !
#10630000
b10 !
#10690000
b11 !
#10750000
b0 !
#10810000
b1 !
#10870000
b10 !
#10930000
b11 !
#10990000
b0 !
#11050000
b1 !
#11110000
b10 !
#11170000
b11 !
#11230000
b0 !
#11290000
b1 !
#11350000
b10 !
#11410000
b11 !
#11470000
b0 !
#11530000
b1 !
#11590000
b10 !
#11650000
b11 !
#11710000
b0 !
#11770000
b1 !
#11830000
b10 !
#11890000
b11 !
#11950000
b0 !
#12010000
b1 !
#12070000
b10 !
#12130000
b11 !
#12190000
b0 !
#12250000
b1 !
#12310000
b10 !
#12370000
b11 !
#12430000
b0 !
#12490000
b1 !
#12550000
b10 !
#12610000
b11 !
#12670000
b0 !
#12730000
b1 !
#12790000
b10 !
#12850000
b11 !
#12910000
b0 !
#12970000
b1 !
#13030000
b10 !
#13090000
b11 !
#13150000
b0 !
#13270000
b100 !
#13510000
b0 !
#17710000
b1 !
#17770000
b10 !
#17830000
b11 !
#17890000
b0 !
#17950000
b1 !
#18010000
b10 !
#18070000
b11 !
#18130000
b0 !
#18190000
b1 !
#18250000
b10 !
#18310000
b11 !
#18370000
b0 !
#18430000
b1 !
#18490000
b10 !
#18550000
b11 !
#18610000
b0 !
#18670000
b1 !
#18730000
b10 !
#18790000
b11 !
#18850000
b0 !
#18910000
b1 !
#18970000
b10 !
#19030000
b11 !
#19090000
b0 !
#19150000
b1 !
#19210000
b10 !
#19270000
b11 !
#19330000
b0 !
#19390000
b1 !
#19450000
b10 !
#19510000
b11 !
#19570000
b0 !
#19630000
b1 !
#19690000
b10 !
#19750000
b11 !
#19810000
b0 !
#19870000
b1 !
#19930000
b10 !
#19990000
b11 !
#20050000
b0 !
#20110000
b1 !
#20170000
b10 !
#20230000
b11 !
#20290000
b0 !
#20350000
b1 !
#20410000
b10 !
#20470000
b11 !
#20530000
b0 !
#20590000
b1 !
#20650000
b10 !
#20710000
b11 !
#20770000
b0 !
#20830000
b1 !
#20890000
b10 !
#20950000
b11 !
#21010000
b0 !
#21070000
b1 !
#21130000
b10 !
#21190000
b11 !
#21250000
b0 !
#21370000
b1000000 !
#21430000
b0 !
#21490000
b11 !
#21550000
b1000000 !
